Owen Ellick - Homework 1
…
Rows: 1464 Columns: 7
── Column specification ────────────────────────────────────────────────────────
Delimiter: ","
chr  (4): station_id, month, flag, location
dbl  (2): day, temperature
date (1): date

ℹ Use `spec()` to retrieve the full column specification for this data.
ℹ Specify the column types or set `show_col_types = FALSE` to quiet this message.

ncdc_temp

# A tibble: 1,464 × 7
   station_id  month   day temperature flag  date       location    
   <chr>       <chr> <dbl>       <dbl> <chr> <date>     <chr>       
 1 USC00042319 01        1        51   S     0000-01-01 Death Valley
 2 USC00042319 01        2        51.2 S     0000-01-02 Death Valley
 3 USC00042319 01        3        51.3 S     0000-01-03 Death Valley
 4 USC00042319 01        4        51.4 S     0000-01-04 Death Valley
 5 USC00042319 01        5        51.6 S     0000-01-05 Death Valley
 6 USC00042319 01        6        51.7 S     0000-01-06 Death Valley
 7 USC00042319 01        7        51.9 S     0000-01-07 Death Valley
 8 USC00042319 01        8        52   S     0000-01-08 Death Valley
 9 USC00042319 01        9        52.2 S     0000-01-09 Death Valley
10 USC00042319 01       10        52.3 S     0000-01-10 Death Valley
# ℹ 1,454 more rows
…
