Owen Ellick - Ice Cream
…
Ben & Jerry’s Ice Cream

Load Necessary Library

library(tidyverse)
library(ggplot2)
library(scales)

Loading the Data

ice_cream <- read_csv('https://bcdanl.github.io/data/ben-and-jerry-cleaned.csv')

print(ice_cream)

# A tibble: 21,974 × 17
   priceper1 flavor_descr        size1_descr household_id household_income
       <dbl> <chr>               <chr>              <dbl>            <dbl>
 1      3.41 CAKE BATTER         16.0 MLOZ        2001456           130000
 2      3.5  VAN CARAMEL FUDGE   16.0 MLOZ        2001456           130000
 3      3.5  VAN CARAMEL FUDGE   16.0 MLOZ        2001456           130000
 4      3    W-N-C-P-C           16.0 MLOZ        2001637            70000
 5      3.99 AMERICONE DREAM     16.0 MLOZ        2002791           130000
 6      3.89 ONE CSK BROWNIE     16.0 MLOZ        2002791           130000
 7      3.89 PUMPKIN CSK         16.0 MLOZ        2002791           130000
 8      2.14 CHC ALMOND NOUGAT   16.0 MLOZ        2001878           110000
 9      3.5  PISTACHIO PISTACHIO 16.0 MLOZ        2002721           210000
10      3    PISTACHIO PISTACHIO 16.0 MLOZ        2002721           210000
# ℹ 21,964 more rows
# ℹ 12 more variables: household_size <dbl>, usecoup <lgl>, couponper1 <dbl>,
#   region <chr>, married <lgl>, race <chr>, hispanic_origin <lgl>,
#   microwave <lgl>, dishwasher <lgl>, sfh <lgl>, internet <lgl>, tvcable <lgl>
…
